{
    "SENDGRID_API_KEY":"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",
    "GOOGLEPLUS_CLIENT_ID":"874539885703-okdfsqgou1tpamei6hsup2pprufb2s3d.apps.googleusercontent.com",
    "GOOGLEPLUS_CLIENT_SECRET":"z_XWM_VyhG2-7qsqYqB1Vavy",
    "GOOGLEPLUS_CALLBACK":"http://127.0.0.1:8080/api/auth/googleplus/callback",


    "GITHUB_CLIENT_ID":"66a8e22befa1777c1c2d",
    "GITHUB_CLIENT_SECRET":"81c713001f26339ce728c0f08e6dbdcd95062199",
    "GITHUB_CALLBACK":"http://127.0.0.1:8080/api/auth/github/callback"



    }